[
  {
    "location": "classification-definition",
    "name": "CLASSIFICATION_DEFINITION",
    "tooltip": "CLASSIFICATION_DEFINITION_TOOLTIP",
    "translations": [
      {
        "identifier": "cs",
        "title": "Definice hodnocení",
        "tooltip": "Dokumentace k definici hodnocení předmětů"
      },
      {
        "identifier": "en",
        "title": "Evaluation definitions",
        "tooltip": "Documentation for creation of evaluation definition"
      }
    ],
    "visibleTo": ["editor", "instructor", "lecturer", "guarantor", "examiner", "headOfDepartment"]
  },
  {
    "location": "expressions",
    "name": "EXPRESSION_TUTORIAL",
    "tooltip": "EXPRESSION_TUTORIAL_TOOLTIP",
    "translations": [
      {
        "identifier": "cs",
        "title": "Tvorba vzorců",
        "tooltip": "Příklady a přehled možností vzorců"
      },
      {
        "identifier": "en",
        "title": "Expression tutorial",
        "tooltip": "Examples and overview of capabilities of expression fields"
      }
    ],
    "visibleTo": ["editor", "instructor", "lecturer", "guarantor", "examiner", "headOfDepartment"]
  },
  {
    "location": "classification-evaluate",
    "name": "CLASSIFICATION_EVALUATE",
    "tooltip": "CLASSIFICATION_EVALUATE",
    "translations": [
      {
        "identifier": "cs",
        "title": "Hodnocení studentů",
        "tooltip": "Návod na možnosti hodnocení studentů"
      },
      {
        "identifier": "en",
        "title": "Student classification",
        "tooltip": "How to evaluate students"
      }
    ],
    "visibleTo": ["editor", "instructor", "lecturer", "guarantor", "examiner", "headOfDepartment"]
  },
  {
    "location": "api",
    "name": "API",
    "tooltip": "API",
    "translations": [
      {
        "identifier": "cs",
        "title": "Api",
        "tooltip": "Popis api"
      },
      {
        "identifier": "en",
        "title": "Api",
        "tooltip": "Api description"
      }
    ],
    "visibleTo": ["student", "editor", "instructor", "lecturer", "guarantor", "examiner", "headOfDepartment"]
  },
  {
    "location": "changelog",
    "name": "CHANGELOG",
    "tooltip": "CHANGELOG",
    "translations": [
      {
        "identifier": "cs",
        "title": "Changelog",
        "tooltip": "Seznam historických změn aplikace"
      },
      {
        "identifier": "en",
        "title": "Changelog",
        "tooltip": "List of changes in the application"
      }
    ],
    "visibleTo": ["student", "editor", "instructor", "lecturer", "guarantor", "examiner", "headOfDepartment"]
  }
]
